http://www.mdpi.com/journal/entropy


http://www.mdpi.com/journal/entropy/instructions



Ideas:


1) remove outline

2) less content about adjusting the values(?)


max 28  pages?



3) remove  easy example,  sample calculations



---------------------------------------------------------------

1/1


- Fix results					-done
- Fix conclusions				-done





----- check out adjusting  			- done

-----  check out  different graph values


-----  Add explanation of  memory-1 strategies







---------------------------------------------------------------

2/1 


Introduction fix			done

-  adding M1 strategies			done



- have a look at experiment setting	done

- have a look at contribution		done



- have a look at abstract		done


section 7   -->READY TO ADD EXPLANATION OF M1 STRATEGIES		done


whole section 7 modifying				done
		











----------------------------------------------------------

what i removed:


- failed  experiments section 
- future works section


- re-structured a bit of the starting,  cut down some background information.

Quickly reach networked game then state the contribution.



- this thesis ---> this paper



- removed the simple example
- removed the example calculation of  Assortativity












