\relax 
\providecommand\hyper@newdestlabel[2]{}
\providecommand\HyperFirstAtBeginDocument{\AtBeginDocument}
\HyperFirstAtBeginDocument{\ifx\hyper@anchor\@undefined
\global\let\oldcontentsline\contentsline
\gdef\contentsline#1#2#3#4{\oldcontentsline{#1}{#2}{#3}}
\global\let\oldnewlabel\newlabel
\gdef\newlabel#1#2{\newlabelxx{#1}#2}
\gdef\newlabelxx#1#2#3#4#5#6{\oldnewlabel{#1}{{#2}{#3}}}
\AtEndDocument{\ifx\hyper@anchor\@undefined
\let\contentsline\oldcontentsline
\let\newlabel\oldnewlabel
\fi}
\fi}
\global\let\hyper@last\relax 
\gdef\HyperFirstAtBeginDocument#1{#1}
\providecommand\HyField@AuxAddToFields[1]{}
\providecommand\HyField@AuxAddToCoFields[2]{}
\citation{3_axelrodhamilton_1984}
\citation{3_axelrodhamilton_1984}
\@writefile{toc}{\contentsline {section}{\numberline {1}Introduction}{1}{section.1}}
\citation{12_kraineskraines_2000}
\citation{4_pressdyson_2012}
\citation{3_axelrodhamilton_1984}
\citation{2_nowaksigmund_1993}
\citation{11_adami_2010}
\citation{1_barabasi_2009}
\citation{5_nowakmay_1993}
\citation{00_myPhdGod}
\citation{14_langer_nowak}
\@writefile{lot}{\contentsline {table}{\numberline {1}{\ignorespaces The prisoner's Dilemma ($T > R > P > S$). The left payoff corresponds to the left player, and the right payoff corresponds to the top player.\relax }}{2}{table.1}}
\providecommand*\caption@xref[2]{\@setref\relax\@undefined{#1}}
\newlabel{tb:game_PD}{{1}{2}{The prisoner's Dilemma ($T > R > P > S$). The left payoff corresponds to the left player, and the right payoff corresponds to the top player.\relax }{table.1}{}}
\@writefile{toc}{\contentsline {section}{\numberline {2}Iterated Prisoner's Dilemma}{2}{section.2}}
\@writefile{toc}{\contentsline {section}{\numberline {3}Networked Game}{2}{section.3}}
\citation{3_abbottwatts_2000}
\citation{6_watts_1999}
\@writefile{toc}{\contentsline {section}{\numberline {4}Contribution}{3}{section.4}}
\@writefile{toc}{\contentsline {section}{\numberline {5}Scale-free network with different attributes}{3}{section.5}}
\newlabel{eq:SFeuation}{{1}{3}{Scale-free network with different attributes}{equation.5.1}{}}
\@writefile{lof}{\contentsline {figure}{\numberline {1}{\ignorespaces Three graphs with 1500 nodes and 2250 edges but different with $\gamma $ (a)2.2 (b)2.6 (c) 2.9\relax }}{3}{figure.1}}
\newlabel{fig:SFDifferentGamma}{{1}{3}{Three graphs with 1500 nodes and 2250 edges but different with $\gamma $ (a)2.2 (b)2.6 (c) 2.9\relax }{figure.1}{}}
\citation{17_newman_2003}
\citation{16_newman_2002}
\citation{17_newman_2003}
\@writefile{toc}{\contentsline {subsection}{\numberline {5.1}Clustering Coefficient}{4}{subsection.5.1}}
\newlabel{eq:CCUsing}{{2}{4}{Clustering Coefficient}{equation.5.2}{}}
\@writefile{lof}{\contentsline {figure}{\numberline {2}{\ignorespaces A graph with clustering coefficient of 0.583 and the respective clustering coefficient for each node.  \relax }}{4}{figure.2}}
\newlabel{fig:CCExample}{{2}{4}{A graph with clustering coefficient of 0.583 and the respective clustering coefficient for each node.  \relax }{figure.2}{}}
\@writefile{toc}{\contentsline {subsection}{\numberline {5.2}Assortativity}{4}{subsection.5.2}}
\newlabel{subsec:assortativity}{{5.2}{4}{Assortativity}{subsection.5.2}{}}
\newlabel{eq:AssortNewmanUsing}{{3}{4}{Assortativity}{equation.5.3}{}}
\citation{1_shannor_1949}
\newlabel{eq:QValue}{{4}{5}{Assortativity}{equation.5.4}{}}
\newlabel{eq:QVariance}{{5}{5}{Assortativity}{equation.5.5}{}}
\@writefile{toc}{\contentsline {subsection}{\numberline {5.3}Information Content}{5}{subsection.5.3}}
\newlabel{eq:mutualInfoOne}{{6}{5}{Information Content}{equation.5.6}{}}
\newlabel{eq:shannonInformation}{{7}{5}{Information Content}{equation.5.7}{}}
\@writefile{toc}{\contentsline {section}{\numberline {6}Configuring the scale-free network}{5}{section.6}}
\newlabel{chap:experiments}{{6}{5}{Configuring the scale-free network}{section.6}{}}
\@writefile{toc}{\contentsline {subsection}{\numberline {6.1}Adjusting Scale Free exponent}{6}{subsection.6.1}}
\newlabel{sec:gamma_changing}{{6.1}{6}{Adjusting Scale Free exponent}{subsection.6.1}{}}
\citation{32_sokolov_2005}
\newlabel{tb:ListOfNodes22Gamma}{{\caption@xref {tb:ListOfNodes22Gamma}{ on input line 492}}{7}{Adjusting Scale Free exponent}{subsection.6.1}{}}
\@writefile{lot}{\contentsline {table}{\numberline {2}{\ignorespaces The Node Count List for 2.2 $\gamma $ in figure \ref  {fig:SFDifferentGamma} on the left and the list for 2.8 $\gamma $ on the right. Both of them have the same number of nodes and edges. \relax }}{7}{table.2}}
\newlabel{tb:ListOfNodes28Gamma}{{2}{7}{The Node Count List for 2.2 $\gamma $ in figure \ref {fig:SFDifferentGamma} on the left and the list for 2.8 $\gamma $ on the right. Both of them have the same number of nodes and edges. \relax }{table.2}{}}
\@writefile{toc}{\contentsline {subsection}{\numberline {6.2}Adjusting the clustering coefficient}{7}{subsection.6.2}}
\newlabel{sec:AddingTriangles}{{6.2}{7}{Adjusting the clustering coefficient}{subsection.6.2}{}}
\@writefile{lof}{\contentsline {figure}{\numberline {3}{\ignorespaces (a)An isolated triangle. (b) A 4 degrees node will not use the last 2 edges to form triangles, but to keep it for connecting the outer graph. (c)An odd degree node (5 here) will also leave at least one edge for connecting to the outer graph after new condition applied\relax }}{7}{figure.3}}
\newlabel{fig:CCTriProblems}{{3}{7}{(a)An isolated triangle. (b) A 4 degrees node will not use the last 2 edges to form triangles, but to keep it for connecting the outer graph. (c)An odd degree node (5 here) will also leave at least one edge for connecting to the outer graph after new condition applied\relax }{figure.3}{}}
\@writefile{toc}{\contentsline {subsection}{\numberline {6.3}Adjusting the assortativity}{8}{subsection.6.3}}
\@writefile{lof}{\contentsline {figure}{\numberline {4}{\ignorespaces By pairing up the high degree nodes and the low degree nodes we can increase the assortatitivty of a graph, and vice versa.\relax }}{8}{figure.4}}
\newlabel{fig:AssortDPR}{{4}{8}{By pairing up the high degree nodes and the low degree nodes we can increase the assortatitivty of a graph, and vice versa.\relax }{figure.4}{}}
\@writefile{toc}{\contentsline {subsection}{\numberline {6.4}Adjusting the information content}{8}{subsection.6.4}}
\@writefile{lof}{\contentsline {figure}{\numberline {5}{\ignorespaces A small graph that is randomly generated.\relax }}{8}{figure.5}}
\newlabel{fig:IC_TheCase4}{{5}{8}{A small graph that is randomly generated.\relax }{figure.5}{}}
\citation{1_nowakmay_1992}
\citation{00_myPhdGod}
\@writefile{lof}{\contentsline {figure}{\numberline {6}{\ignorespaces The (a)$q_k q_k$ values and the (b) $e_{j,k}$ for the sample graph\relax }}{9}{figure.6}}
\newlabel{fig:IC_surfaceGrpah}{{6}{9}{The (a)$q_k q_k$ values and the (b) $e_{j,k}$ for the sample graph\relax }{figure.6}{}}
\@writefile{toc}{\contentsline {section}{\numberline {7}Simulations}{9}{section.7}}
\newlabel{sec:TheSetting}{{7}{9}{Simulations}{section.7}{}}
\newlabel{alog:SwappingUp}{{4}{10}{Simulations}{Item.7}{}}
\@writefile{toc}{\contentsline {section}{\numberline {8}Results}{10}{section.8}}
\newlabel{chap:results}{{8}{10}{Results}{section.8}{}}
\@writefile{toc}{\contentsline {subsection}{\numberline {8.1}Scale-free exponent}{10}{subsection.8.1}}
\@writefile{lof}{\contentsline {figure}{\numberline {7}{\ignorespaces Cooperator vs Defector with each point representing an average of 20 iterations.\relax }}{10}{figure.7}}
\newlabel{fig:GammaCvD10Avg}{{7}{10}{Cooperator vs Defector with each point representing an average of 20 iterations.\relax }{figure.7}{}}
\@writefile{lof}{\contentsline {figure}{\numberline {8}{\ignorespaces General Cooperator vs General Defector with each point representing an average of 20 iterations.\relax }}{11}{figure.8}}
\newlabel{fig:GammaGCvGD10Avg}{{8}{11}{General Cooperator vs General Defector with each point representing an average of 20 iterations.\relax }{figure.8}{}}
\@writefile{lof}{\contentsline {figure}{\numberline {9}{\ignorespaces Pavlov vs Tit for tat with each point representing an average of 20 iterations.\relax }}{11}{figure.9}}
\newlabel{fig:GammaPavVsTFT155Avg}{{9}{11}{Pavlov vs Tit for tat with each point representing an average of 20 iterations.\relax }{figure.9}{}}
\@writefile{lof}{\contentsline {figure}{\numberline {10}{\ignorespaces Pavlov vs General Defector with each point representing an average of 20 iterations.\relax }}{11}{figure.10}}
\newlabel{fig:Gamma_PavVsGD}{{10}{11}{Pavlov vs General Defector with each point representing an average of 20 iterations.\relax }{figure.10}{}}
\citation{2_nowaksigmund_1993}
\@writefile{toc}{\contentsline {subsection}{\numberline {8.2}Clustering Coefficient}{12}{subsection.8.2}}
\@writefile{lof}{\contentsline {figure}{\numberline {11}{\ignorespaces Cooperator vs Defector in a scale-free network with 2.8 $\gamma $.\relax }}{12}{figure.11}}
\newlabel{fig:CC_CvD_28Gamma_15Thres}{{11}{12}{Cooperator vs Defector in a scale-free network with 2.8 $\gamma $.\relax }{figure.11}{}}
\@writefile{lof}{\contentsline {figure}{\numberline {12}{\ignorespaces General Cooperator vs General Defector in a scale-free network with 2.8 $\gamma $.\relax }}{13}{figure.12}}
\newlabel{fig:CC_GCvsGD_28Gamma_10Thres}{{12}{13}{General Cooperator vs General Defector in a scale-free network with 2.8 $\gamma $.\relax }{figure.12}{}}
\@writefile{lof}{\contentsline {figure}{\numberline {13}{\ignorespaces Pavlov vs Tit-for-tat in a scale-free network with 2.8 $\gamma $.\relax }}{13}{figure.13}}
\newlabel{fig:CC_PavVtft_28Gamma_10Thres}{{13}{13}{Pavlov vs Tit-for-tat in a scale-free network with 2.8 $\gamma $.\relax }{figure.13}{}}
\@writefile{toc}{\contentsline {subsection}{\numberline {8.3}Assortativity}{13}{subsection.8.3}}
\@writefile{lof}{\contentsline {figure}{\numberline {14}{\ignorespaces Cooperator vs Defector in a scale-free network with 2.8 $\gamma $.\relax }}{14}{figure.14}}
\newlabel{fig:Assort_CvD_15Thres_28Gamma}{{14}{14}{Cooperator vs Defector in a scale-free network with 2.8 $\gamma $.\relax }{figure.14}{}}
\@writefile{lof}{\contentsline {figure}{\numberline {15}{\ignorespaces Cooperator vs Defector in a scale-free network with 2.62 $\gamma $.\relax }}{14}{figure.15}}
\newlabel{fig:Assort_CvD_15Thres_262Gamma}{{15}{14}{Cooperator vs Defector in a scale-free network with 2.62 $\gamma $.\relax }{figure.15}{}}
\@writefile{lof}{\contentsline {figure}{\numberline {16}{\ignorespaces Cooperator vs Defector in a scale-free network with 2.2 $\gamma $.\relax }}{14}{figure.16}}
\newlabel{fig:Assort_CvD_146Thres_22Gamma}{{16}{14}{Cooperator vs Defector in a scale-free network with 2.2 $\gamma $.\relax }{figure.16}{}}
\@writefile{lof}{\contentsline {figure}{\numberline {17}{\ignorespaces Three graphs with different assortativity. The first graph has 1, second graph has -0.16364 and last graph has -1 (star shape).\relax }}{15}{figure.17}}
\newlabel{fig:ThreeGraphsWithDifferentAssortativityResult}{{17}{15}{Three graphs with different assortativity. The first graph has 1, second graph has -0.16364 and last graph has -1 (star shape).\relax }{figure.17}{}}
\@writefile{lof}{\contentsline {figure}{\numberline {18}{\ignorespaces Pavlov vs General Defector in a scale-free network 2.8 $\gamma $.\relax }}{15}{figure.18}}
\newlabel{fig:Assort_PavVsGD_128Thres_28Gamma}{{18}{15}{Pavlov vs General Defector in a scale-free network 2.8 $\gamma $.\relax }{figure.18}{}}
\@writefile{lof}{\contentsline {figure}{\numberline {19}{\ignorespaces Pavlov vs General Defector in a scale-free network 2.8 $\gamma $.\relax }}{16}{figure.19}}
\newlabel{fig:Assort_PavVsGD_136Thres_28Gamma}{{19}{16}{Pavlov vs General Defector in a scale-free network 2.8 $\gamma $.\relax }{figure.19}{}}
\@writefile{toc}{\contentsline {subsection}{\numberline {8.4}Information Content}{16}{subsection.8.4}}
\@writefile{lof}{\contentsline {figure}{\numberline {20}{\ignorespaces Cooperator vs Defector in a scale-free network with 1.0 $\gamma $.\relax }}{17}{figure.20}}
\newlabel{fig:IC_CvD_1Gamma_146Thres}{{20}{17}{Cooperator vs Defector in a scale-free network with 1.0 $\gamma $.\relax }{figure.20}{}}
\@writefile{lof}{\contentsline {figure}{\numberline {21}{\ignorespaces Cooperator vs Defector in a scale-free network with 2.2 $\gamma $.\relax }}{17}{figure.21}}
\newlabel{fig:IC_CvD_22Gamma_146Thress}{{21}{17}{Cooperator vs Defector in a scale-free network with 2.2 $\gamma $.\relax }{figure.21}{}}
\@writefile{lof}{\contentsline {figure}{\numberline {22}{\ignorespaces Cooperator vs Defector in a scale-free network with 2.8 $\gamma $.\relax }}{18}{figure.22}}
\newlabel{fig:IC_CvD_28Gamma_146Thress}{{22}{18}{Cooperator vs Defector in a scale-free network with 2.8 $\gamma $.\relax }{figure.22}{}}
\bibstyle{mdpi}
\@writefile{toc}{\contentsline {section}{\numberline {9}Conclusions}{19}{section.9}}
\newlabel{chap:conclusion}{{9}{19}{Conclusions}{section.9}{}}
\bibcite{3_abbottwatts_2000}{{1}{}{{}}{{}}}
\bibcite{2_albert_2001}{{2}{}{{}}{{}}}
\bibcite{7_mislove_2007}{{3}{}{{}}{{}}}
\bibcite{3_axelrodhamilton_1984}{{4}{}{{}}{{}}}
\bibcite{1_barabasi_2009}{{5}{}{{}}{{}}}
\bibcite{2_bavelas_1948}{{6}{}{{}}{{}}}
\bibcite{1_biggs_lloyd_wilson_1976}{{7}{}{{}}{{}}}
\bibcite{4_bin}{{8}{}{{}}{{}}}
\bibcite{5_doebeliknowlton_1998}{{9}{}{{}}{{}}}
\bibcite{6_dutta_1999}{{10}{}{{}}{{}}}
\bibcite{Renyi:59-FIRST-ENTRY}{{11}{}{{}}{{}}}
\bibcite{4_evanssaramki_2005}{{12}{}{{}}{{}}}
\bibcite{2_freeman_1977}{{13}{}{{}}{{}}}
\bibcite{1_goldberg_1989}{{14}{}{{}}{{}}}
\bibcite{11_adami_2010}{{15}{}{{}}{{}}}
\bibcite{12_kraineskraines_2000}{{16}{}{{}}{{}}}
\bibcite{13_kummerli_colliard}{{17}{}{{}}{{}}}
\bibcite{33_kurakin_2016}{{18}{}{{}}{{}}}
\bibcite{14_langer_nowak}{{19}{}{{}}{{}}}
\bibcite{00_myPhdGod}{{20}{}{{}}{{}}}
\bibcite{10_maynardsmith_1982}{{21}{}{{}}{{}}}
\bibcite{17_nash_1951}{{22}{}{{}}{{}}}
\bibcite{16_newman_2002}{{23}{}{{}}{{}}}
\bibcite{17_newman_2003}{{24}{}{{}}{{}}}
\bibcite{2_nowaksigmund_1993}{{25}{}{{}}{{}}}
\bibcite{1_nowak_2006}{{26}{}{{}}{{}}}
\bibcite{1_nowakmay_1992}{{27}{}{{}}{{}}}
\bibcite{5_nowakmay_1993}{{28}{}{{}}{{}}}
\bibcite{30_Pacheco}{{29}{}{{}}{{}}}
\bibcite{4_pressdyson_2012}{{30}{}{{}}{{}}}
\bibcite{5_santos_rodrigues}{{31}{}{{}}{{}}}
\bibcite{31_sarama_2004}{{32}{}{{}}{{}}}
\bibcite{1_shannor_1949}{{33}{}{{}}{{}}}
\bibcite{6_sicardi_2009}{{34}{}{{}}{{}}}
\bibcite{3_simkocsermely_2013}{{35}{}{{}}{{}}}
\bibcite{8_skyrms_2004}{{36}{}{{}}{{}}}
\bibcite{4_smithprice_1973}{{37}{}{{}}{{}}}
\bibcite{11_szemeredi_1975}{{38}{}{{}}{{}}}
\bibcite{12_szolnokiperc_2014}{{39}{}{{}}{{}}}
\bibcite{13_taylorjonker_1978}{{40}{}{{}}{{}}}
\bibcite{11_von_1972}{{41}{}{{}}{{}}}
\bibcite{6_watts_1999}{{42}{}{{}}{{}}}
\bibcite{32_sokolov_2005}{{43}{}{{}}{{}}}
\newlabel{LastPage}{{}{21}{}{page.21}{}}
\xdef\lastpage@lastpage{21}
\xdef\lastpage@lastpageHy{21}
\providecommand\NAT@force@numbers{}\NAT@force@numbers
