#Information Content		Number Of Swaps
0.001751		184
0.001202		164
0.000571		178
0.001562		156
0.000784		166
0.000956		166
0.002989		185
0.002399		187
0.000397		167
0.0004			143
0.002924		169
0.00328			180
0.002659		172
0.003401		148
0.001155		159
0.00399			160
0.00265			167
0.001412		187
0.005023		160
0.000914		160
0.00426			172
0.006439		156
0.006694		171
0.008013		183
0.002342		168
0.003611		156
0.002271		176
0.006397		146
0.003724		156
0.005335		173
0.010771		150
0.013423		137
0.009288		143
0.004948		145
0.008219		165
0.010979		159
0.012545		161
0.011092		157
0.009038		148
0.009032		175
0.016428		170
0.015792		135
0.020633		138
0.013004		170
0.01234			136
0.022446		150
0.024036		166
0.019331		152
0.012278		131
0.011712		140
0.022477		157
0.032371		152
0.024937		151
0.026911		144
0.024735		176
0.019307		155
0.017494		160
0.021398		142
0.021728		135
0.021936		151
0.041421		123
0.035699		136
0.047121		134
0.05372			145
0.035236		139
0.044891		136
0.046051		135
0.042212		146
0.045717		150
0.033861		150
0.057458		156
0.0582			141
0.065048		140
0.035895		152
0.048596		141
0.056249		134
0.0441			149
0.046273		131
0.053574		136
0.05197			140
0.054018		135
0.068992		134
0.060543		131
0.063848		127
0.08397			145
0.062092		130
0.057281		154
0.050218		136
0.061276		141
0.054619		142
0.075915		140
0.080378		123
0.081494		126
0.07983			129
0.094058		133
0.074313		136
0.092248		125
0.090533		142
0.07738			133
0.082159		130
0.100635		144
0.117024		137
0.115823		126
0.104577		145
0.094372		132
0.095509		122
0.100651		134
0.110097		126
0.109176		137
0.094649		128
0.131475		120
0.12087			122
0.138523		142
0.119409		143
0.120948		153
0.140506		126
0.120323		120
0.130665		139
0.10985			123
0.132795		128
0.150922		125
0.156647		121
0.158527		142
0.15986			130
0.15097			135
0.150136		124
0.154905		117
0.150183		136
0.15702			118
0.156901		120
0.181641		117
0.184964		129
0.196912		114
0.193228		124
0.186093		119
0.182111		122
0.172978		133
0.192099		125
0.173852		123
0.181873		107
0.196053		137
0.21			124
0.218663		121
0.213429		128
0.212008		114
0.198013		118
0.216354		125
0.195768		117
0.206734		126
0.218689		128
0.00468			167
0.001792		159
0.002834		149
0.000641		173
0.000393		159
0.000878		172
0.003166		170
0.002675		156
0.001239		170
0.002055		173
0.001617		173
0.003529		177
0.004675		160
0.001748		178
0.002917		147
0.001285		186
0.004713		178
0.007874		206
0.003597		168
0.001939		150
0.013096		194
0.013438		186
0.012388		168
0.010378		170
0.013935		176
0.007978		188
0.007136		196
0.01354			197
0.012863		181
0.008599		162
0.012992		196
0.017942		182
0.020038		196
0.015642		185
0.013157		168
0.018433		206
0.013828		201
0.012394		186
0.02872			195
0.017134		203
0.033804		201
0.026994		200
0.022003		154
0.03311			187
0.024661		167
0.032557		205
0.028797		200
0.024311		187
0.034049		189
0.035158		186
0.032063		186
0.038615		188
0.029593		178
0.028371		191
0.033698		201
0.032855		194
0.03022			202
0.027215		188
0.034431		196
0.031789		193
0.058186		204
0.052498		194
0.051187		216
0.052672		215
0.055501		204
0.046568		195
0.052042		217
0.043883		199
0.049411		197
0.048141		228
0.072866		219
0.08831			248
0.069945		210
0.081156		239
0.067496		195
0.078068		200
0.07311			225
0.073706		223
0.064595		229
0.081151		244
0.074904		229
0.072806		197
0.086809		232
0.086926		217
0.080616		228
0.074724		246
0.088638		250
0.084452		239
0.088347		230
0.084428		204
0.107903		231
0.121365		243
0.104976		222
0.094046		237
0.098846		219
0.106846		235
0.11713			224
0.111742		224
0.114804		260
0.101172		242
0.110039		243
0.127223		245
0.117734		216
0.122066		242
0.125106		224
0.125863		234
0.123719		253
0.124118		252
0.139652		246
0.123697		224
0.139816		209
0.142579		236
0.125002		242
0.124208		228
0.115572		248
0.13341			259
0.117356		245
0.138169		237
0.159494		229
0.149175		251
0.129557		237
0.133237		251
0.142386		227
0.146009		264
0.12562			235
0.142949		238
0.157112		251
0.133811		228
0.138532		262
0.167346		250
0.182607		228
0.158477		260
0.167668		244
0.178521		246
0.205976		246
0.206085		246
0.212923		233
